I, [2016-10-19T14:20:35.752055 #7149]  INFO -- default-ubuntu-1404: -----> Creating <default-ubuntu-1404>...
I, [2016-10-19T14:20:37.299899 #7149]  INFO -- default-ubuntu-1404: Bringing machine 'default' up with 'virtualbox' provider...
I, [2016-10-19T14:20:37.415832 #7149]  INFO -- default-ubuntu-1404: ==> default: Box 'bento/ubuntu-14.04' could not be found. Attempting to find and install...
I, [2016-10-19T14:20:37.415984 #7149]  INFO -- default-ubuntu-1404:     default: Box Provider: virtualbox
I, [2016-10-19T14:20:37.416231 #7149]  INFO -- default-ubuntu-1404:     default: Box Version: >= 0
I, [2016-10-19T14:20:38.617718 #7149]  INFO -- default-ubuntu-1404: ==> default: Loading metadata for box 'bento/ubuntu-14.04'
I, [2016-10-19T14:20:38.617968 #7149]  INFO -- default-ubuntu-1404:     default: URL: https://atlas.hashicorp.com/bento/ubuntu-14.04
I, [2016-10-19T14:20:39.221321 #7149]  INFO -- default-ubuntu-1404: ==> default: Adding box 'bento/ubuntu-14.04' (v2.3.0) for provider: virtualbox
I, [2016-10-19T14:20:39.224774 #7149]  INFO -- default-ubuntu-1404:     default: Downloading: https://atlas.hashicorp.com/bento/boxes/ubuntu-14.04/versions/2.3.0/providers/virtualbox.box
I, [2016-10-19T14:20:39.225021 #7149]  INFO -- default-ubuntu-1404: ==> default: Box download is resuming from prior download progress
